{
  "name": "list_course_reviews",
  "description": "Fetch user reviews and ratings for a specific Udemy course. Returns a paginated list of reviews including the reviewer name, rating, content, and creation date. Useful for evaluating course quality and understanding student experiences.",
  "endpoint": "/api-2.0/courses/{course_id}/reviews/",
  "method": "GET",
  "parameters": [
    {
      "name": "course_id",
      "type": "integer",
      "description": "The unique identifier of the course.",
      "required": true,
      "example": 950390
    },
    {
      "name": "page",
      "type": "integer",
      "description": "Page number for pagination (starts at 1).",
      "required": false,
      "example": 1
    },
    {
      "name": "page_size",
      "type": "integer",
      "description": "Number of reviews per page (max 100, default 12).",
      "required": false,
      "example": 10
    },
    {
      "name": "fields[course_review]",
      "type": "string",
      "description": "Comma-separated list of review fields to include.",
      "required": false,
      "example": "title,content,rating,created,user"
    }
  ],
  "request_example": {
    "method": "GET",
    "url": "https://www.udemy.com/api-2.0/courses/950390/reviews/?page_size=5&fields[course_review]=content,rating,created,user",
    "headers": {
      "Authorization": "Basic {base64_encoded_client_id:client_secret}",
      "Accept": "application/json"
    }
  },
  "response_example": {
    "status": 200,
    "body": {
      "count": 125000,
      "next": "https://www.udemy.com/api-2.0/courses/950390/reviews/?page=2",
      "previous": null,
      "results": [
        {
          "id": 12345678,
          "content": "Excellent course! Very thorough coverage of machine learning concepts with practical examples.",
          "rating": 5.0,
          "created": "2025-11-15T08:30:00Z",
          "user": {
            "title": "John D.",
            "display_name": "John D."
          }
        }
      ]
    }
  }
}
