{
  "name": "manage_subscribers",
  "description": "List, create, update, or delete subscribers from your Buttondown newsletter. You can filter subscribers by type (regular, unactivated, removed) and by tag. Supports pagination for large lists.",
  "endpoint": "/v1/subscribers",
  "method": "GET",
  "parameters": [
    {
      "name": "email",
      "type": "string",
      "description": "Filter subscribers by email address (exact match).",
      "required": false,
      "example": "reader@example.com"
    },
    {
      "name": "type",
      "type": "string",
      "description": "Filter by subscriber type. Options: regular, unactivated, removed.",
      "required": false,
      "example": "regular"
    },
    {
      "name": "tag",
      "type": "string",
      "description": "Filter subscribers by a specific tag ID.",
      "required": false,
      "example": "abc123"
    },
    {
      "name": "page",
      "type": "integer",
      "description": "Page number for paginated results.",
      "required": false,
      "example": 1
    }
  ],
  "request_example": {
    "method": "GET",
    "url": "https://api.buttondown.email/v1/subscribers?type=regular&page=1",
    "headers": {
      "Authorization": "Token {api_key}"
    }
  },
  "response_example": {
    "status": 200,
    "body": {
      "count": 142,
      "next": "https://api.buttondown.email/v1/subscribers?page=2",
      "previous": null,
      "results": [
        {
          "id": "sub_abc123",
          "email": "reader@example.com",
          "creation_date": "2025-01-15T10:30:00Z",
          "tags": ["tech", "weekly"],
          "subscriber_type": "regular",
          "metadata": {},
          "notes": ""
        }
      ]
    }
  }
}
